{
  "users":[
    {
      "page": 1,
      "per_page": 10,
      "total": 50,
      "total_pages": 5,
      "data": [
        {
          "id": 1,
          "email": "george.bluth@reqres.in",
          "first_name": "George",
          "last_name": "Bluth",
          "avatar": "https://reqres.in/img/faces/1-image.jpg"
        },
        {
          "id": 2,
          "email": "janet.weaver@reqres.in",
          "first_name": "Janet",
          "last_name": "Weaver",
          "avatar": "https://reqres.in/img/faces/2-image.jpg"
        },
        {
          "id": 3,
          "email": "emma.wong@reqres.in",
          "first_name": "Emma",
          "last_name": "Wong",
          "avatar": "https://reqres.in/img/faces/3-image.jpg"
        },
        {
          "id": 4,
          "email": "eve.holt@reqres.in",
          "first_name": "Eve",
          "last_name": "Holt",
          "avatar": "https://reqres.in/img/faces/4-image.jpg"
        },
        {
          "id": 5,
          "email": "charles.morris@reqres.in",
          "first_name": "Charles",
          "last_name": "Morris",
          "avatar": "https://reqres.in/img/faces/5-image.jpg"
        },
        {
          "id": 6,
          "email": "tracey.ramos@reqres.in",
          "first_name": "Tracey",
          "last_name": "Ramos",
          "avatar": "https://reqres.in/img/faces/6-image.jpg"
        },
        {
          "id": 7,
          "email": "michael.lawson@reqres.in",
          "first_name": "Michael",
          "last_name": "Lawson",
          "avatar": "https://reqres.in/img/faces/7-image.jpg"
        },
        {
          "id": 8,
          "email": "lindsay.ferguson@reqres.in",
          "first_name": "Lindsay",
          "last_name": "Ferguson",
          "avatar": "https://reqres.in/img/faces/8-image.jpg"
        },
        {
          "id": 9,
          "email": "tobias.funke@reqres.in",
          "first_name": "Tobias",
          "last_name": "Funke",
          "avatar": "https://reqres.in/img/faces/9-image.jpg"
        },
        {
          "id": 10,
          "email": "byron.fields@reqres.in",
          "first_name": "Byron",
          "last_name": "Fields",
          "avatar": "https://reqres.in/img/faces/10-image.jpg"
        }
      ],
      "support": {
        "url": "https://reqres.in/#support-heading",
        "text": "To keep ReqRes free, contributions towards server costs are appreciated!"
      }
    },
    {
      "page": 2,
      "per_page": 10,
      "total": 50,
      "total_pages": 5,
      "data": [
        {
          "id": 11,
          "email": "george.edwards@reqres.in",
          "first_name": "George",
          "last_name": "Edwards",
          "avatar": "https://reqres.in/img/faces/11-image.jpg"
        },
        {
          "id": 12,
          "email": "rachel.howell@reqres.in",
          "first_name": "Rachel",
          "last_name": "Howell",
          "avatar": "https://reqres.in/img/faces/12-image.jpg"
        },
        {
          "id":13,
          "email":"brad.gibson@example.com",
          "first_name":"Brad",
          "last_name":"Gibson",
          "avatar":"https://randomuser.me/api/portraits/men/75.jpg"
        },
        {
          "id":14,
          "email":"darren.andrews@example.com",
          "first_name":"Darren",
          "last_name":"Andrews",
          "avatar":"https://randomuser.me/api/portraits/men/76.jpg"
        },
        {
          "id":15,
          "email":"ethel.brown@example.com",
          "first_name":"Ethel",
          "last_name":"Brown",
          "avatar":"https://randomuser.me/api/portraits/women/41.jpg"
        },
        {
          "id":16,
          "email":"nicole.richards@example.com",
          "first_name":"Nicole",
          "last_name":"Richards",
          "avatar":"https://randomuser.me/api/portraits/women/87.jpg"
        },
        {
          "id":17,
          "email":"april.mendoza@example.com",
          "first_name":"April",
          "last_name":"Mendoza",
          "avatar":"https://randomuser.me/api/portraits/women/21.jpg"
        },
        {
          "id":18,
          "email":"chester.simmmons@example.com",
          "first_name":"Chester",
          "last_name":"Simmmons",
          "avatar":"https://randomuser.me/api/portraits/men/77.jpg"
        },
        {
          "id":19,
          "email":"everett.wright@example.com",
          "first_name":"Everett",
          "last_name":"Wright",
          "avatar":"https://randomuser.me/api/portraits/men/86.jpg"
        },
        {
          "id":20,
          "email":"ricardo.barnes@example.com",
          "first_name":"Ricardo",
          "last_name":"Barnes",
          "avatar":"https://randomuser.me/api/portraits/men/33.jpg"
        }
      ],
      "support": {
        "url": "https://reqres.in/#support-heading",
        "text": "To keep ReqRes free, contributions towards server costs are appreciated!"
      }
    },
    {
      "page": 3,
      "per_page": 10,
      "total": 50,
      "total_pages": 5,
      "data": [
        {
          "id":21,
          "email":"clayton.reed@example.com",
          "first_name":"Clayton",
          "last_name":"Reed",
          "avatar":"https://randomuser.me/api/portraits/men/25.jpg"
        },
        {
          "id":22,
          "email":"joyce.hudson@example.com",
          "first_name":"Joyce",
          "last_name":"Hudson",
          "avatar":"https://randomuser.me/api/portraits/women/14.jpg"
        },
        {
          "id":23,
          "email":"laurie.schmidt@example.com",
          "first_name":"Laurie",
          "last_name":"Schmidt",
          "avatar":"https://randomuser.me/api/portraits/women/0.jpg"
        },
        {
          "id":24,
          "email":"erik.douglas@example.com",
          "first_name":"Erik",
          "last_name":"Douglas",
          "avatar":"https://randomuser.me/api/portraits/men/71.jpg"
        },
        {
          "id":25,
          "email":"timmothy.robertson@example.com",
          "first_name":"Timmothy",
          "last_name":"Robertson",
          "avatar":"https://randomuser.me/api/portraits/men/46.jpg"
        },
        {
          "id":26,
          "email":"cory.washington@example.com",
          "first_name":"Cory",
          "last_name":"Washington",
          "avatar":"https://randomuser.me/api/portraits/men/36.jpg"
        },
        {
          "id":27,
          "email":"dean.smith@example.com",
          "first_name":"Dean",
          "last_name":"Smith",
          "avatar":"https://randomuser.me/api/portraits/men/45.jpg"
        },
        {
          "id":28,
          "email":"kitty.hernandez@example.com",
          "first_name":"Kitty",
          "last_name":"Hernandez",
          "avatar":"https://randomuser.me/api/portraits/women/90.jpg"
        },
        {
          "id":29,
          "email":"jacqueline.ellis@example.com",
          "first_name":"Jacqueline",
          "last_name":"Ellis",
          "avatar":"https://randomuser.me/api/portraits/women/65.jpg"
        },
        {
          "id":30,
          "email":"zack.barnes@example.com",
          "first_name":"Zack",
          "last_name":"Barnes",
          "avatar":"https://randomuser.me/api/portraits/men/48.jpg"
        }
      ],
      "support": {
        "url": "https://reqres.in/#support-heading",
        "text": "To keep ReqRes free, contributions towards server costs are appreciated!"
      }
    },
    {
      "page": 4,
      "per_page": 10,
      "total": 50,
      "total_pages": 5,
      "data": [
        {
          "id":31,
          "email":"lucille.cooper@example.com",
          "first_name":"Lucille",
          "last_name":"Cooper",
          "avatar":"https://randomuser.me/api/portraits/women/5.jpg"
        },
        {
          "id":32,
          "email":"harry.bell@example.com",
          "first_name":"Harry",
          "last_name":"Bell",
          "avatar":"https://randomuser.me/api/portraits/men/10.jpg"
        },
        {
          "id":33,
          "email":"flenn.morrison@example.com",
          "first_name":"Flenn",
          "last_name":"Morrison",
          "avatar":"https://randomuser.me/api/portraits/men/63.jpg"
        },
        {
          "id":34,
          "email":"ella.reed@example.com",
          "first_name":"Ella",
          "last_name":"Reed",
          "avatar":"https://randomuser.me/api/portraits/women/51.jpg"
        },
        {
          "id":35,
          "email":"jeffrey.miles@example.com",
          "first_name":"Jeffrey",
          "last_name":"Miles",
          "avatar":"https://randomuser.me/api/portraits/men/58.jpg"
        },
        {
          "id":36,
          "email":"rick.jones@example.com",
          "first_name":"Rick",
          "last_name":"Jones",
          "avatar":"https://randomuser.me/api/portraits/men/38.jpg"
        },
        {
          "id":37,
          "email":"bob.nelson@example.com",
          "first_name":"Bob",
          "last_name":"Nelson",
          "avatar":"https://randomuser.me/api/portraits/men/42.jpg"
        },
        {
          "id":38,
          "email":"noelle.mccoy@example.com",
          "first_name":"Noelle",
          "last_name":"Mccoy",
          "avatar":"https://randomuser.me/api/portraits/women/40.jpg"
        },
        {
          "id":39,
          "email":"harry.burke@example.com",
          "first_name":"Harry",
          "last_name":"Burke",
          "avatar":"https://randomuser.me/api/portraits/men/40.jpg"
        },
        {
          "id":40,
          "email":"samantha.willis@example.com",
          "first_name":"Samantha",
          "last_name":"Willis",
          "avatar":"https://randomuser.me/api/portraits/women/74.jpg"
        }
      ],
      "support": {
        "url": "https://reqres.in/#support-heading",
        "text": "To keep ReqRes free, contributions towards server costs are appreciated!"
      }
    },
    {
      "page": 5,
      "per_page": 10,
      "total": 50,
      "total_pages": 5,
      "data": [
        {
          "id":41,
          "email":"earl.meyer@example.com",
          "first_name":"Earl",
          "last_name":"Meyer",
          "avatar":"https://randomuser.me/api/portraits/men/7.jpg"
        },
        {
          "id":42,
          "email":"tony.neal@example.com",
          "first_name":"Tony",
          "last_name":"Neal",
          "avatar":"https://randomuser.me/api/portraits/men/50.jpg"
        },
        {
          "id":43,
          "email":"derrick.beck@example.com",
          "first_name":"Derrick",
          "last_name":"Beck",
          "avatar":"https://randomuser.me/api/portraits/men/76.jpg"
        },
        {
          "id":44,
          "email":"claude.simpson@example.com",
          "first_name":"Claude",
          "last_name":"Simpson",
          "avatar":"https://randomuser.me/api/portraits/men/96.jpg"
        },
        {
          "id":45,
          "email":"kristen.morrison@example.com",
          "first_name":"Kristen",
          "last_name":"Morrison",
          "avatar":"https://randomuser.me/api/portraits/women/15.jpg"
        },
        {
          "id":46,
          "email":"clyde.hicks@example.com",
          "first_name":"Clyde",
          "last_name":"Hicks",
          "avatar":"https://randomuser.me/api/portraits/men/81.jpg"
        },
        {
          "id":47,
          "email":"linda.cruz@example.com",
          "first_name":"Linda",
          "last_name":"Cruz",
          "avatar":"https://randomuser.me/api/portraits/women/44.jpg"
        },
        {
          "id":48,
          "email":"https://randomuser.me/api/portraits/men/35.jpg",
          "first_name":"Jimmy",
          "last_name":"Jensen",
          "avatar":"https://randomuser.me/api/portraits/men/35.jpg"
        },
        {
          "id":49,
          "email":"terra.thompson@example.com",
          "first_name":"Terra",
          "last_name":"Thompson",
          "avatar":"https://randomuser.me/api/portraits/women/1.jpg"
        },
        {
          "id":50,
          "email":"kirk.hoffman@example.com",
          "first_name":"Kirk",
          "last_name":"Hoffman",
          "avatar":"https://randomuser.me/api/portraits/men/32.jpg"
        }

      ],
      "support": {
        "url": "https://reqres.in/#support-heading",
        "text": "To keep ReqRes free, contributions towards server costs are appreciated!"
      }
    }
  ]
}